simulation/qsim/Contador_Programa.msim.vcd
$comment
	File created using the following command:
		vcd file Contador_Programa.msim.vcd -direction
$end
$date
	Thu Oct 27 16:47:51 2016
$end
$version
	ModelSim Version 10.4d
$end
$timescale
	1ps
$end

$scope module Contador_Programa_vlg_vec_tst $end
$var reg 1 ! CLKN $end
$var reg 1 " CLRN $end
$var reg 1 # Cp $end
$var reg 1 $ Ep $end
$var wire 1 % S_Cp [0] $end
$var wire 1 & S_Cp [1] $end
$var wire 1 ' S_Cp [2] $end
$var wire 1 ( S_Cp [3] $end

$scope module i1 $end
$var wire 1 ) gnd $end
$var wire 1 * vcc $end
$var wire 1 + unknown $end
$var tri1 1 , devclrn $end
$var tri1 1 - devpor $end
$var tri1 1 . devoe $end
$var wire 1 / S_Cp[0]~output_o $end
$var wire 1 0 S_Cp[1]~output_o $end
$var wire 1 1 S_Cp[2]~output_o $end
$var wire 1 2 S_Cp[3]~output_o $end
$var wire 1 3 CLKN~input_o $end
$var wire 1 4 inst~0_combout $end
$var wire 1 5 inst~feeder_combout $end
$var wire 1 6 CLRN~input_o $end
$var wire 1 7 CLRN~inputclkctrl_outclk $end
$var wire 1 8 Cp~input_o $end
$var wire 1 9 inst~q $end
$var wire 1 : Ep~input_o $end
$var wire 1 ; inst1~0_combout $end
$var wire 1 < inst1~feeder_combout $end
$var wire 1 = inst1~q $end
$var wire 1 > inst2~0_combout $end
$var wire 1 ? inst2~feeder_combout $end
$var wire 1 @ inst2~q $end
$var wire 1 A inst3~0_combout $end
$var wire 1 B inst3~q $end
$upscope $end
$upscope $end
$enddefinitions $end
#0
$dumpvars
0!
1"
1#
1$
x(
x'
x&
x%
0)
1*
x+
1,
1-
1.
x/
x0
x1
x2
03
x4
x5
16
x7
18
09
1:
x;
x<
0=
x>
x?
0@
1A
0B
$end
#215
17
#940
1;
#1324
1>
#1784
1<
#1869
14
#2562
1?
#3596
15
#3735
02
0(
#3981
01
0'
#4015
00
0&
#5317
0/
0%
#25000
1!
#25685
13
#50000
0!
#50801
03
#52085
19
#53922
04
#55650
05
#57249
1/
1%
#75000
1!
#75685
13
#100000
0!
#100801
03
#102085
09
#103297
1=
#103954
14
#104195
0;
#105068
0<
#105681
15
#107304
10
1&
#107402
0/
0%
#125000
1!
#125685
13
#150000
0!
#150801
03
#152085
19
#153922
04
#155650
05
#157249
1/
1%
#175000
1!
#175685
13
#200000
0!
#200801
03
#202085
09
#203297
0=
#203954
14
#204237
1;
#205050
1@
#205081
1<
#205681
15
#206350
0>
#207312
00
0&
#207402
0/
0%
#207577
0?
#208999
11
1'
#225000
1!
#225685
13
#250000
0!
#250801
03
#252085
19
#253922
04
#255650
05
#257249
1/
1%
#275000
1!
#275685
13
#300000
0#
0!
#300801
03
08
#302085
09
#303297
1=
#303954
14
#304195
0;
#305068
0<
#305681
15
#307304
10
1&
#307402
0/
0%
#325000
1!
#325685
13
#350000
0!
#350801
03
#375000
1!
#375685
13
#400000
0!
#400801
03
#425000
1!
#425685
13
#450000
0!
#450801
03
#475000
1!
#475685
13
#500000
0!
#500801
03
#525000
1!
#525685
13
#550000
0!
#550801
03
#575000
1!
#575685
13
